wet02/shiftReg_orig.vcd
$date
     Tue Mar 19 13:07:47 2024

$end
$version
     Generated by HCM VCD formatter for cell: shiftReg_flat
$end
$timescale
     1s
$end
$scope module DUT $end
$var wire 1 " C1 $end
$var wire 1 # I $end
$var wire 1 $ S $end
$scope module ff1 $end
$upscope $end
$scope module ff2 $end
$upscope $end
$scope module ff3 $end
$upscope $end
$upscope $end
$enddefinitions $end
#0
$dumpvars
0"
0#
0$
#1
1"
0#
0$
#2
0"
1#
0$
#3
1"
0#
0$
#4
0"
0#
0$
#5
1"
0#
0$
#6
0"
0#
0$
#7
1"
0#
1$
